Introduction To R - LSIRM 2018 3
…
Filtering and Selecting

The tidyverse is meant to accomplish a few things. One of these things is to improve the readability of R code. Base R can be quite messy.

One of the key innovations in the tidyverse() is the use of this character %>%. This is a pipe that sends the results of one command to the command on the next line. Technically, this character only works when the magritr library is loaded, but this is always loaded automatically when you run library(tidyverse) so you almost never have to worry about it.

Another big issue is consistency. The tidyverse() is built ona consistent set of design principles that make it easier to use.

For example, the base R way to select a few variables is to use the subset() command with the select argument:

subset(ces, select=c('gender', 'ideology'))

## # A tibble: 7,572 x 2
##    gender ideology
##    <fct>     <dbl>
##  1 M             8
##  2 F             6
##  3 M            NA
##  4 F            NA
##  5 M            NA
##  6 F            NA
##  7 M             4
##  8 M             3
##  9 M             5
## 10 M             8
## # ... with 7,562 more rows

The same command is used to subset cases , not just variables.

#This selects only males
subset(ces, select='gender',gender=='M')

## # A tibble: 3,635 x 1
##    gender
##    <fct> 
##  1 M     
##  2 M     
##  3 M     
##  4 M     
##  5 M     
##  6 M     
##  7 M     
##  8 M     
##  9 M     
## 10 M     
## # ... with 3,625 more rows

By contrast the tidyverse uses two separate commands for these two different functions: filter() and select()

filter(ces, gender=='M')

## # A tibble: 3,635 x 17
##    p_incineq income_full p_selfplace education p_votechce pers_ret 
##    <dbl+lbl> <dbl+lbl>         <dbl>     <dbl> <dbl+lbl>  <dbl+lbl>
##  1 1         5                     8         9 1          2        
##  2 <NA>      1                    NA         7 <NA>       3        
##  3 3         2                  1000        10 1          3        
##  4 1         3                     4         7 <NA>       1        
##  5 1         3                     3        11 3          1        
##  6 3         4                     5         5 1          2        
##  7 2         1                     8         7 1          1        
##  8 <NA>      7                    NA         4 <NA>       5        
##  9 1         4                     6        10 1          3        
## 10 <NA>      4                    NA         5 <NA>       2        
## # ... with 3,625 more rows, and 11 more variables: pers_fdpol <dbl+lbl>,
## #   p_gap <dbl+lbl>, sex_r <dbl+lbl>, inequal <dbl>, gender <fct>,
## #   degree <fct>, income <dbl>, ideology <dbl>, inequal_cat <fct>,
## #   personal <fct>, federal <fct>

select(ces, c(gender, ideology))

## # A tibble: 7,572 x 2
##    gender ideology
##    <fct>     <dbl>
##  1 M             8
##  2 F             6
##  3 M            NA
##  4 F            NA
##  5 M            NA
##  6 F            NA
##  7 M             4
##  8 M             3
##  9 M             5
## 10 M             8
## # ... with 7,562 more rows
…
First we can select the three variables of interest, and save them in a temporary data frame called out. We could use any name, but out is useful because it is quick to type, and sort of implies something temporary. Others also often use tmp or temp. I often use test.

names(ces)

##  [1] "p_incineq"   "income_full" "p_selfplace" "education"   "p_votechce" 
##  [6] "pers_ret"    "pers_fdpol"  "p_gap"       "sex_r"       "inequal"    
## [11] "gender"      "degree"      "income"      "ideology"    "inequal_cat"
## [16] "personal"    "federal"

out<-ces %>% 
  select(gender, degree, p_votechce)
#Check the results 
out

## # A tibble: 7,572 x 3
##    gender degree    p_votechce
##    <fct>  <fct>     <dbl+lbl> 
##  1 M      Degree    1         
##  2 F      <NA>      1         
##  3 M      No degree <NA>      
##  4 F      No degree <NA>      
##  5 M      Degree    1         
##  6 F      Degree    <NA>      
##  7 M      No degree <NA>      
##  8 M      Degree    3         
##  9 M      No degree 1         
## 10 M      No degree 1         
## # ... with 7,562 more rows
…
ces$vote<-Recode(as.numeric(ces$p_votechce), "1='Conservative' ; 2='Liberal' ; 3='NDP'; 4='BQ' ; else=NA", levels=c('Conservative', 'Liberal', 'NDP', 'BQ'), as.factor=T)

Now we can reselect and form groups with group_by

#We will start with `ces`
out<-ces %>% 
  #select gender, degree and vote
  select(gender, degree, vote) %>% 
  #Form groups of gender and degree
  group_by(gender, degree, vote)
#print
out

## # A tibble: 7,572 x 3
## # Groups:   gender, degree, vote [39]
##    gender degree    vote        
##    <fct>  <fct>     <fct>       
##  1 M      Degree    Conservative
##  2 F      <NA>      Conservative
##  3 M      No degree <NA>        
##  4 F      No degree <NA>        
##  5 M      Degree    Conservative
##  6 F      Degree    <NA>        
##  7 M      No degree <NA>        
##  8 M      Degree    NDP         
##  9 M      No degree Conservative
## 10 M      No degree Conservative
## # ... with 7,562 more rows
…
